EESchema Schematic File Version 4
EELAYER 30 0
EELAYER END
$Descr A4 11693 8268
encoding utf-8
Sheet 1 1
Title "STM32F4 Evaluation Board"
Date "2020-08-02"
Rev "1"
Comp "Mark Geiger"
Comment1 ""
Comment2 ""
Comment3 ""
Comment4 ""
$EndDescr
$Comp
L Mechanical:MountingHole_Pad H1
U 1 1 5F2945F2
P 10600 950
F 0 "H1" V 10700 999 50  0000 L CNN
F 1 "Pad" V 10700 750 50  0000 L CNN
F 2 "MountingHole:MountingHole_4.3mm_M4_Pad_Via" H 10600 950 50  0001 C CNN
F 3 "~" H 10600 950 50  0001 C CNN
	1    10600 950 
	0    1    1    0   
$EndComp
$Comp
L Mechanical:MountingHole_Pad H2
U 1 1 5F287FA3
P 10600 1200
F 0 "H2" V 10700 1249 50  0000 L CNN
F 1 "Pad" V 10700 1000 50  0000 L CNN
F 2 "MountingHole:MountingHole_4.3mm_M4_Pad_Via" H 10600 1200 50  0001 C CNN
F 3 "~" H 10600 1200 50  0001 C CNN
	1    10600 1200
	0    1    1    0   
$EndComp
$Comp
L Mechanical:MountingHole_Pad H3
U 1 1 5F2883A3
P 10600 1450
F 0 "H3" V 10700 1499 50  0000 L CNN
F 1 "Pad" V 10700 1250 50  0000 L CNN
F 2 "MountingHole:MountingHole_4.3mm_M4_Pad_Via" H 10600 1450 50  0001 C CNN
F 3 "~" H 10600 1450 50  0001 C CNN
	1    10600 1450
	0    1    1    0   
$EndComp
$Comp
L Mechanical:MountingHole_Pad H4
U 1 1 5F2883A9
P 10600 1700
F 0 "H4" V 10700 1749 50  0000 L CNN
F 1 "Pad" V 10700 1500 50  0000 L CNN
F 2 "MountingHole:MountingHole_4.3mm_M4_Pad_Via" H 10600 1700 50  0001 C CNN
F 3 "~" H 10600 1700 50  0001 C CNN
	1    10600 1700
	0    1    1    0   
$EndComp
$Comp
L power:GND #PWR0101
U 1 1 5F289138
P 10200 1850
F 0 "#PWR0101" H 10200 1600 50  0001 C CNN
F 1 "GND" H 10205 1677 50  0000 C CNN
F 2 "" H 10200 1850 50  0001 C CNN
F 3 "" H 10200 1850 50  0001 C CNN
	1    10200 1850
	1    0    0    -1  
$EndComp
Wire Wire Line
	10200 1850 10200 1700
Wire Wire Line
	10200 950  10500 950 
Wire Wire Line
	10500 1200 10200 1200
Connection ~ 10200 1200
Wire Wire Line
	10200 1200 10200 950 
Wire Wire Line
	10500 1450 10200 1450
Connection ~ 10200 1450
Wire Wire Line
	10200 1450 10200 1200
Connection ~ 10200 1700
Wire Wire Line
	10200 1700 10200 1450
Wire Wire Line
	10200 1700 10500 1700
Wire Notes Line
	10100 850  10800 850 
Wire Notes Line
	10800 850  10800 2100
Wire Notes Line
	10800 2100 10100 2100
Wire Notes Line
	10100 2100 10100 850 
Text Notes 10100 800  0    50   ~ 0
Mounting Pads\n
$Comp
L Regulator_Linear:AMS1117-3.3 U1
U 1 1 5F29E598
P 1850 1000
F 0 "U1" H 1850 1242 50  0000 C CNN
F 1 "AMS1117-3.3" H 1850 1151 50  0000 C CNN
F 2 "Package_TO_SOT_SMD:SOT-223-3_TabPin2" H 1850 1200 50  0001 C CNN
F 3 "http://www.advanced-monolithic.com/pdf/ds1117.pdf" H 1950 750 50  0001 C CNN
	1    1850 1000
	1    0    0    -1  
$EndComp
$Comp
L Device:Ferrite_Bead_Small FB1
U 1 1 5F2A244C
P 1000 1000
F 0 "FB1" V 750 1000 50  0000 C CNN
F 1 "100 @ 100MHz" V 850 1050 50  0000 C CNN
F 2 "Inductor_SMD:L_0805_2012Metric" V 930 1000 50  0001 C CNN
F 3 "~" H 1000 1000 50  0001 C CNN
	1    1000 1000
	0    1    1    0   
$EndComp
$Comp
L Device:C_Small C1
U 1 1 5F2B3D6C
P 1350 1200
F 0 "C1" H 1442 1246 50  0000 L CNN
F 1 "10u" H 1442 1155 50  0000 L CNN
F 2 "Capacitor_SMD:C_0805_2012Metric" H 1350 1200 50  0001 C CNN
F 3 "~" H 1350 1200 50  0001 C CNN
	1    1350 1200
	1    0    0    -1  
$EndComp
$Comp
L Device:C_Small C2
U 1 1 5F2B5553
P 2300 1200
F 0 "C2" H 2392 1246 50  0000 L CNN
F 1 "10u" H 2392 1155 50  0000 L CNN
F 2 "Capacitor_SMD:C_0805_2012Metric" H 2300 1200 50  0001 C CNN
F 3 "~" H 2300 1200 50  0001 C CNN
	1    2300 1200
	1    0    0    -1  
$EndComp
$Comp
L power:GND #PWR02
U 1 1 5F2B5E1B
P 1850 1450
F 0 "#PWR02" H 1850 1200 50  0001 C CNN
F 1 "GND" H 1855 1277 50  0000 C CNN
F 2 "" H 1850 1450 50  0001 C CNN
F 3 "" H 1850 1450 50  0001 C CNN
	1    1850 1450
	1    0    0    -1  
$EndComp
Wire Wire Line
	650  900  650  1000
Wire Wire Line
	2300 1000 2150 1000
Wire Wire Line
	1850 1300 1850 1350
Wire Wire Line
	1350 1100 1350 1000
Connection ~ 1350 1000
Wire Wire Line
	1350 1000 1550 1000
Wire Wire Line
	1350 1300 1350 1350
Wire Wire Line
	1350 1350 1850 1350
Connection ~ 1850 1350
Wire Wire Line
	1850 1350 1850 1450
Wire Wire Line
	1850 1350 2300 1350
Wire Wire Line
	2300 1350 2300 1300
Wire Wire Line
	2300 1100 2300 1000
$Comp
L power:+3V3 #PWR03
U 1 1 5F2BBB2C
P 2300 1000
F 0 "#PWR03" H 2300 850 50  0001 C CNN
F 1 "+3V3" H 2300 1150 50  0000 C CNN
F 2 "" H 2300 1000 50  0001 C CNN
F 3 "" H 2300 1000 50  0001 C CNN
	1    2300 1000
	1    0    0    -1  
$EndComp
Connection ~ 2300 1000
Wire Notes Line
	550  650  2750 650 
Wire Notes Line
	2750 650  2750 1700
Wire Notes Line
	2750 1700 550  1700
Wire Notes Line
	550  1700 550  650 
Text Notes 550  600  0    50   ~ 0
Input Voltage Regulator
$Comp
L power:+3V3 #PWR0102
U 1 1 5F2D5660
P 2000 3600
F 0 "#PWR0102" H 2000 3450 50  0001 C CNN
F 1 "+3V3" H 2015 3773 50  0000 C CNN
F 2 "" H 2000 3600 50  0001 C CNN
F 3 "" H 2000 3600 50  0001 C CNN
	1    2000 3600
	1    0    0    -1  
$EndComp
Wire Wire Line
	2000 3600 2000 3650
Wire Wire Line
	2000 3650 2100 3650
Connection ~ 2000 3650
Wire Wire Line
	2000 3650 2000 3700
Wire Wire Line
	2200 3700 2200 3650
Wire Wire Line
	2100 3700 2100 3650
Connection ~ 2100 3650
Wire Wire Line
	2100 3650 2200 3650
$Comp
L power:+3V3 #PWR0103
U 1 1 5F2DB46A
P 3000 950
F 0 "#PWR0103" H 3000 800 50  0001 C CNN
F 1 "+3V3" H 3015 1123 50  0000 C CNN
F 2 "" H 3000 950 50  0001 C CNN
F 3 "" H 3000 950 50  0001 C CNN
	1    3000 950 
	1    0    0    -1  
$EndComp
$Comp
L Device:Ferrite_Bead_Small FB2
U 1 1 5F2DCC33
P 3400 1050
F 0 "FB2" V 3163 1050 50  0000 C CNN
F 1 "100 @ 100MHz" V 3254 1050 50  0000 C CNN
F 2 "Inductor_SMD:L_0805_2012Metric" V 3330 1050 50  0001 C CNN
F 3 "~" H 3400 1050 50  0001 C CNN
	1    3400 1050
	0    1    1    0   
$EndComp
$Comp
L Device:C_Small C3
U 1 1 5F2DE909
P 3700 1250
F 0 "C3" H 3792 1296 50  0000 L CNN
F 1 "100nf" H 3792 1205 50  0000 L CNN
F 2 "Capacitor_SMD:C_0402_1005Metric" H 3700 1250 50  0001 C CNN
F 3 "~" H 3700 1250 50  0001 C CNN
	1    3700 1250
	1    0    0    -1  
$EndComp
$Comp
L Device:C_Small C4
U 1 1 5F2DF6F8
P 4100 1250
F 0 "C4" H 4192 1296 50  0000 L CNN
F 1 "10nf" H 4192 1205 50  0000 L CNN
F 2 "Capacitor_SMD:C_0402_1005Metric" H 4100 1250 50  0001 C CNN
F 3 "~" H 4100 1250 50  0001 C CNN
	1    4100 1250
	1    0    0    -1  
$EndComp
$Comp
L power:GND #PWR0104
U 1 1 5F2E1BC0
P 3700 1450
F 0 "#PWR0104" H 3700 1200 50  0001 C CNN
F 1 "GND" H 3705 1277 50  0000 C CNN
F 2 "" H 3700 1450 50  0001 C CNN
F 3 "" H 3700 1450 50  0001 C CNN
	1    3700 1450
	1    0    0    -1  
$EndComp
$Comp
L power:GND #PWR0105
U 1 1 5F2E7C14
P 4100 1450
F 0 "#PWR0105" H 4100 1200 50  0001 C CNN
F 1 "GND" H 4105 1277 50  0000 C CNN
F 2 "" H 4100 1450 50  0001 C CNN
F 3 "" H 4100 1450 50  0001 C CNN
	1    4100 1450
	1    0    0    -1  
$EndComp
Wire Wire Line
	3500 1050 3700 1050
Wire Wire Line
	3700 1050 3700 1150
Wire Wire Line
	3700 1050 4100 1050
Wire Wire Line
	4100 1050 4100 1150
Connection ~ 3700 1050
Wire Wire Line
	3000 950  3000 1050
Wire Wire Line
	3000 1050 3300 1050
Wire Wire Line
	3700 1350 3700 1450
Wire Wire Line
	4100 1350 4100 1450
$Comp
L power:+3.3VA #PWR0106
U 1 1 5F2F0B6F
P 4100 950
F 0 "#PWR0106" H 4100 800 50  0001 C CNN
F 1 "+3.3VA" H 4115 1123 50  0000 C CNN
F 2 "" H 4100 950 50  0001 C CNN
F 3 "" H 4100 950 50  0001 C CNN
	1    4100 950 
	1    0    0    -1  
$EndComp
Wire Wire Line
	4100 1050 4100 950 
Connection ~ 4100 1050
Wire Notes Line
	2850 650  2850 1700
Wire Notes Line
	2850 1700 4400 1700
Wire Notes Line
	4400 1700 4400 650 
Wire Notes Line
	4400 650  2850 650 
Text Notes 2850 600  0    50   ~ 0
Analog Ref Voltage
$Comp
L Device:C_Small C5
U 1 1 5F30FF5A
P 650 2450
F 0 "C5" H 742 2496 50  0000 L CNN
F 1 "100nf" H 742 2405 50  0000 L CNN
F 2 "Capacitor_SMD:C_0402_1005Metric" H 650 2450 50  0001 C CNN
F 3 "~" H 650 2450 50  0001 C CNN
	1    650  2450
	1    0    0    -1  
$EndComp
$Comp
L Device:C_Small C6
U 1 1 5F31A76A
P 1050 2450
F 0 "C6" H 1142 2496 50  0000 L CNN
F 1 "100nf" H 1142 2405 50  0000 L CNN
F 2 "Capacitor_SMD:C_0402_1005Metric" H 1050 2450 50  0001 C CNN
F 3 "~" H 1050 2450 50  0001 C CNN
	1    1050 2450
	1    0    0    -1  
$EndComp
Wire Wire Line
	1050 2250 1050 2350
Wire Wire Line
	1050 2550 1050 2650
$Comp
L Device:C_Small C7
U 1 1 5F31D17C
P 1450 2450
F 0 "C7" H 1542 2496 50  0000 L CNN
F 1 "100nf" H 1542 2405 50  0000 L CNN
F 2 "Capacitor_SMD:C_0402_1005Metric" H 1450 2450 50  0001 C CNN
F 3 "~" H 1450 2450 50  0001 C CNN
	1    1450 2450
	1    0    0    -1  
$EndComp
Wire Wire Line
	1450 2250 1450 2350
Wire Wire Line
	1450 2550 1450 2650
$Comp
L Device:C_Small C8
U 1 1 5F31D184
P 1850 2450
F 0 "C8" H 1942 2496 50  0000 L CNN
F 1 "100nf" H 1942 2405 50  0000 L CNN
F 2 "Capacitor_SMD:C_0402_1005Metric" H 1850 2450 50  0001 C CNN
F 3 "~" H 1850 2450 50  0001 C CNN
	1    1850 2450
	1    0    0    -1  
$EndComp
Wire Wire Line
	1850 2250 1850 2350
Wire Wire Line
	1850 2550 1850 2650
$Comp
L Device:C_Small C9
U 1 1 5F32199A
P 2250 2450
F 0 "C9" H 2342 2496 50  0000 L CNN
F 1 "100nf" H 2342 2405 50  0000 L CNN
F 2 "Capacitor_SMD:C_0402_1005Metric" H 2250 2450 50  0001 C CNN
F 3 "~" H 2250 2450 50  0001 C CNN
	1    2250 2450
	1    0    0    -1  
$EndComp
Wire Wire Line
	2250 2250 2250 2350
Wire Wire Line
	2250 2550 2250 2650
$Comp
L Device:C_Small C10
U 1 1 5F3219A2
P 2650 2450
F 0 "C10" H 2742 2496 50  0000 L CNN
F 1 "100nf" H 2742 2405 50  0000 L CNN
F 2 "Capacitor_SMD:C_0402_1005Metric" H 2650 2450 50  0001 C CNN
F 3 "~" H 2650 2450 50  0001 C CNN
	1    2650 2450
	1    0    0    -1  
$EndComp
Wire Wire Line
	2650 2250 2650 2350
Wire Wire Line
	2650 2550 2650 2650
$Comp
L Device:C_Small C11
U 1 1 5F3219AA
P 3050 2450
F 0 "C11" H 3142 2496 50  0000 L CNN
F 1 "100nf" H 3142 2405 50  0000 L CNN
F 2 "Capacitor_SMD:C_0402_1005Metric" H 3050 2450 50  0001 C CNN
F 3 "~" H 3050 2450 50  0001 C CNN
	1    3050 2450
	1    0    0    -1  
$EndComp
Wire Wire Line
	3050 2250 3050 2350
Wire Wire Line
	3050 2550 3050 2650
$Comp
L Device:C_Small C12
U 1 1 5F3219B2
P 3450 2450
F 0 "C12" H 3542 2496 50  0000 L CNN
F 1 "100nf" H 3542 2405 50  0000 L CNN
F 2 "Capacitor_SMD:C_0402_1005Metric" H 3450 2450 50  0001 C CNN
F 3 "~" H 3450 2450 50  0001 C CNN
	1    3450 2450
	1    0    0    -1  
$EndComp
Wire Wire Line
	3450 2250 3450 2350
Wire Wire Line
	3450 2550 3450 2650
$Comp
L Device:C_Small C13
U 1 1 5F3250EB
P 3850 2450
F 0 "C13" H 3942 2496 50  0000 L CNN
F 1 "100nf" H 3942 2405 50  0000 L CNN
F 2 "Capacitor_SMD:C_0402_1005Metric" H 3850 2450 50  0001 C CNN
F 3 "~" H 3850 2450 50  0001 C CNN
	1    3850 2450
	1    0    0    -1  
$EndComp
Wire Wire Line
	3850 2250 3850 2350
Wire Wire Line
	3850 2550 3850 2650
$Comp
L Device:C_Small C14
U 1 1 5F328CD5
P 4250 2450
F 0 "C14" H 4342 2496 50  0000 L CNN
F 1 "10u" H 4342 2405 50  0000 L CNN
F 2 "Capacitor_SMD:C_0805_2012Metric" H 4250 2450 50  0001 C CNN
F 3 "~" H 4250 2450 50  0001 C CNN
	1    4250 2450
	1    0    0    -1  
$EndComp
Wire Wire Line
	4250 2550 4250 2650
Wire Wire Line
	650  2550 650  2650
Wire Wire Line
	4250 2250 4250 2350
Wire Wire Line
	4250 2250 3850 2250
Connection ~ 1050 2250
Wire Wire Line
	1050 2250 650  2250
Connection ~ 1450 2250
Wire Wire Line
	1450 2250 1050 2250
Connection ~ 1850 2250
Wire Wire Line
	1850 2250 1450 2250
Connection ~ 2250 2250
Wire Wire Line
	2250 2250 1850 2250
Connection ~ 2650 2250
Wire Wire Line
	2650 2250 2250 2250
Connection ~ 3050 2250
Wire Wire Line
	3050 2250 2650 2250
Connection ~ 3450 2250
Wire Wire Line
	3450 2250 3050 2250
Connection ~ 3850 2250
Wire Wire Line
	3850 2250 3450 2250
Wire Wire Line
	650  2650 1050 2650
Connection ~ 1050 2650
Wire Wire Line
	1050 2650 1450 2650
Connection ~ 1450 2650
Wire Wire Line
	1450 2650 1850 2650
Connection ~ 1850 2650
Wire Wire Line
	1850 2650 2250 2650
Connection ~ 2250 2650
Wire Wire Line
	2250 2650 2650 2650
Connection ~ 2650 2650
Wire Wire Line
	2650 2650 3050 2650
Connection ~ 3050 2650
Wire Wire Line
	3050 2650 3450 2650
Connection ~ 3450 2650
Wire Wire Line
	3450 2650 3850 2650
Connection ~ 3850 2650
Wire Wire Line
	3850 2650 4250 2650
$Comp
L power:+3V3 #PWR0109
U 1 1 5F34701B
P 650 2200
F 0 "#PWR0109" H 650 2050 50  0001 C CNN
F 1 "+3V3" H 665 2373 50  0000 C CNN
F 2 "" H 650 2200 50  0001 C CNN
F 3 "" H 650 2200 50  0001 C CNN
	1    650  2200
	1    0    0    -1  
$EndComp
$Comp
L power:GND #PWR0110
U 1 1 5F34BE62
P 650 2700
F 0 "#PWR0110" H 650 2450 50  0001 C CNN
F 1 "GND" H 655 2527 50  0000 C CNN
F 2 "" H 650 2700 50  0001 C CNN
F 3 "" H 650 2700 50  0001 C CNN
	1    650  2700
	1    0    0    -1  
$EndComp
Wire Wire Line
	650  2250 650  2350
Wire Wire Line
	650  2700 650  2650
Connection ~ 650  2650
Wire Wire Line
	650  2200 650  2250
Connection ~ 650  2250
Wire Notes Line
	550  1950 550  2950
Wire Notes Line
	550  2950 4550 2950
Wire Notes Line
	4550 2950 4550 1950
Wire Notes Line
	4550 1950 550  1950
Text Notes 550  1900 0    50   ~ 0
Decoupling Capacitors VDD
Text GLabel 1300 3900 0    50   Input ~ 0
NRST
Text GLabel 1500 5100 0    50   Input ~ 0
HSE_IN
Text GLabel 1500 5200 0    50   Input ~ 0
HSE_OUT
$Comp
L Device:Crystal_GND24_Small HSE1
U 1 1 5F3A7A20
P 5350 2500
F 0 "HSE1" H 5100 2700 50  0000 L CNN
F 1 "16MHz" H 5050 2600 50  0000 L CNN
F 2 "Crystal:Crystal_SMD_3225-4Pin_3.2x2.5mm" H 5350 2500 50  0001 C CNN
F 3 "~" H 5350 2500 50  0001 C CNN
	1    5350 2500
	1    0    0    -1  
$EndComp
$Comp
L power:GND #PWR0113
U 1 1 5F3B799A
P 5350 2800
F 0 "#PWR0113" H 5350 2550 50  0001 C CNN
F 1 "GND" H 5355 2627 50  0000 C CNN
F 2 "" H 5350 2800 50  0001 C CNN
F 3 "" H 5350 2800 50  0001 C CNN
	1    5350 2800
	1    0    0    -1  
$EndComp
Text GLabel 5050 2500 0    50   Input ~ 0
HSE_IN
Text GLabel 5750 2300 1    50   Input ~ 0
HSE_OUT
$Comp
L Device:C_Small C15
U 1 1 5F3C4323
P 5100 2650
F 0 "C15" H 4900 2700 50  0000 L CNN
F 1 "12pf" H 4850 2600 50  0000 L CNN
F 2 "Capacitor_SMD:C_0402_1005Metric" H 5100 2650 50  0001 C CNN
F 3 "~" H 5100 2650 50  0001 C CNN
	1    5100 2650
	1    0    0    -1  
$EndComp
$Comp
L Device:C_Small C16
U 1 1 5F3C8081
P 5600 2650
F 0 "C16" H 5692 2696 50  0000 L CNN
F 1 "12pf" H 5692 2605 50  0000 L CNN
F 2 "Capacitor_SMD:C_0402_1005Metric" H 5600 2650 50  0001 C CNN
F 3 "~" H 5600 2650 50  0001 C CNN
	1    5600 2650
	1    0    0    -1  
$EndComp
Wire Wire Line
	5050 2500 5100 2500
Wire Wire Line
	5350 2800 5350 2750
Connection ~ 5350 2750
Wire Wire Line
	5350 2750 5500 2750
Wire Wire Line
	5100 2550 5100 2500
Connection ~ 5100 2500
Wire Wire Line
	5100 2500 5250 2500
Wire Wire Line
	5450 2500 5600 2500
Wire Wire Line
	5600 2550 5600 2500
Connection ~ 5600 2500
Wire Wire Line
	5600 2500 5750 2500
Wire Wire Line
	5350 2400 5350 2300
Wire Wire Line
	5350 2300 5500 2300
Wire Wire Line
	5500 2300 5500 2750
Connection ~ 5500 2750
Wire Wire Line
	5500 2750 5600 2750
$Comp
L Device:R_Small R2
U 1 1 5F42B8DF
P 5750 2400
F 0 "R2" H 5809 2446 50  0000 L CNN
F 1 "220" H 5809 2355 50  0000 L CNN
F 2 "Resistor_SMD:R_0402_1005Metric" H 5750 2400 50  0001 C CNN
F 3 "~" H 5750 2400 50  0001 C CNN
	1    5750 2400
	1    0    0    -1  
$EndComp
$Comp
L Device:R_Small R3
U 1 1 5F46ECEA
P 700 3550
F 0 "R3" H 759 3596 50  0000 L CNN
F 1 "10k" H 759 3505 50  0000 L CNN
F 2 "Resistor_SMD:R_0402_1005Metric" H 700 3550 50  0001 C CNN
F 3 "~" H 700 3550 50  0001 C CNN
	1    700  3550
	1    0    0    -1  
$EndComp
$Comp
L power:GND #PWR0114
U 1 1 5F47AA60
P 700 3650
F 0 "#PWR0114" H 700 3400 50  0001 C CNN
F 1 "GND" H 705 3477 50  0000 C CNN
F 2 "" H 700 3650 50  0001 C CNN
F 3 "" H 700 3650 50  0001 C CNN
	1    700  3650
	1    0    0    -1  
$EndComp
Text GLabel 700  3450 1    50   Input ~ 0
BOOT0
Text GLabel 2800 5200 2    50   Input ~ 0
SWIO
Text GLabel 2800 5300 2    50   Input ~ 0
SWCLK
$Comp
L Connector_Generic:Conn_02x05_Odd_Even J1
U 1 1 5F4D7EFF
P 5200 1150
F 0 "J1" H 5250 1567 50  0000 C CNN
F 1 "SWD" H 5250 1476 50  0000 C CNN
F 2 "Connector_PinHeader_1.27mm:PinHeader_2x05_P1.27mm_Vertical_SMD" H 5200 1150 50  0001 C CNN
F 3 "~" H 5200 1150 50  0001 C CNN
	1    5200 1150
	1    0    0    -1  
$EndComp
$Comp
L power:+3V3 #PWR0116
U 1 1 5F4DD20B
P 5000 950
F 0 "#PWR0116" H 5000 800 50  0001 C CNN
F 1 "+3V3" V 5015 1078 50  0000 L CNN
F 2 "" H 5000 950 50  0001 C CNN
F 3 "" H 5000 950 50  0001 C CNN
	1    5000 950 
	0    -1   -1   0   
$EndComp
$Comp
L power:GND #PWR0117
U 1 1 5F4F1C84
P 4900 1400
F 0 "#PWR0117" H 4900 1150 50  0001 C CNN
F 1 "GND" H 4905 1227 50  0000 C CNN
F 2 "" H 4900 1400 50  0001 C CNN
F 3 "" H 4900 1400 50  0001 C CNN
	1    4900 1400
	1    0    0    -1  
$EndComp
Wire Wire Line
	5000 1050 4900 1050
Wire Wire Line
	4900 1050 4900 1150
Wire Wire Line
	5000 1350 4900 1350
Connection ~ 4900 1350
Wire Wire Line
	4900 1350 4900 1400
Wire Wire Line
	5000 1150 4900 1150
Connection ~ 4900 1150
Wire Wire Line
	4900 1150 4900 1350
NoConn ~ 5000 1250
NoConn ~ 5500 1250
Text GLabel 5500 1350 2    50   Input ~ 0
NRST
Text GLabel 5500 1050 2    50   Input ~ 0
SWCLK
Text GLabel 5500 950  2    50   Input ~ 0
SWIO
Wire Notes Line
	4600 650  5850 650 
Wire Notes Line
	5850 650  5850 1700
Wire Notes Line
	5850 1700 4600 1700
Wire Notes Line
	4600 1700 4600 650 
Text Notes 4600 600  0    50   ~ 0
Debugger
Wire Notes Line
	4700 1900 6000 1900
Wire Notes Line
	6000 1900 6000 3050
Wire Notes Line
	6000 3050 4700 3050
Wire Notes Line
	4700 3050 4700 1900
Text Notes 4700 1850 0    50   ~ 0
HSE - Crystal\n
Text GLabel 2800 5000 2    50   Input ~ 0
USB_DM
Text GLabel 2800 5100 2    50   Input ~ 0
USB_DP
$Comp
L Device:LED_Small LED2
U 1 1 5F58940F
P 3050 6800
F 0 "LED2" H 2850 6650 50  0000 C CNN
F 1 "Red" H 2850 6750 50  0000 C CNN
F 2 "LED_SMD:LED_0603_1608Metric" V 3050 6800 50  0001 C CNN
F 3 "~" V 3050 6800 50  0001 C CNN
	1    3050 6800
	-1   0    0    1   
$EndComp
$Comp
L Device:R_Small R5
U 1 1 5F589F70
P 3300 6950
F 0 "R5" H 3359 6996 50  0000 L CNN
F 1 "2k2" H 3359 6905 50  0000 L CNN
F 2 "Resistor_SMD:R_0603_1608Metric" H 3300 6950 50  0001 C CNN
F 3 "~" H 3300 6950 50  0001 C CNN
	1    3300 6950
	1    0    0    -1  
$EndComp
$Comp
L power:GND #PWR0118
U 1 1 5F58A431
P 3300 7050
F 0 "#PWR0118" H 3300 6800 50  0001 C CNN
F 1 "GND" H 3305 6877 50  0000 C CNN
F 2 "" H 3300 7050 50  0001 C CNN
F 3 "" H 3300 7050 50  0001 C CNN
	1    3300 7050
	1    0    0    -1  
$EndComp
Wire Wire Line
	2800 6800 2950 6800
Wire Wire Line
	3300 6800 3300 6850
Wire Wire Line
	3150 6800 3300 6800
$Comp
L Device:LED_Small LED1
U 1 1 5F59A06E
P 2450 1000
F 0 "LED1" H 2350 800 50  0000 C CNN
F 1 "Green" H 2350 900 50  0000 C CNN
F 2 "LED_SMD:LED_0603_1608Metric" V 2450 1000 50  0001 C CNN
F 3 "~" V 2450 1000 50  0001 C CNN
	1    2450 1000
	-1   0    0    1   
$EndComp
$Comp
L Device:R_Small R1
U 1 1 5F59A074
P 2600 1150
F 0 "R1" H 2600 1300 50  0000 L CNN
F 1 "2k2" H 2600 1000 50  0000 L CNN
F 2 "Resistor_SMD:R_0603_1608Metric" H 2600 1150 50  0001 C CNN
F 3 "~" H 2600 1150 50  0001 C CNN
	1    2600 1150
	1    0    0    -1  
$EndComp
Wire Wire Line
	2300 1000 2350 1000
Wire Wire Line
	2550 1000 2600 1000
Wire Wire Line
	2600 1000 2600 1050
Wire Wire Line
	2600 1250 2600 1350
Wire Wire Line
	2600 1350 2300 1350
Connection ~ 2300 1350
$Comp
L Power_Protection:USBLC6-2SC6 U2
U 1 1 5F5E78D7
P 8600 1400
F 0 "U2" H 8800 1750 50  0000 C CNN
F 1 "USBLC6-2SC6" H 8900 1050 50  0000 C CNN
F 2 "Package_TO_SOT_SMD:SOT-23-6" H 7850 1800 50  0001 C CNN
F 3 "http://www2.st.com/resource/en/datasheet/CD00050750.pdf" H 8800 1750 50  0001 C CNN
	1    8600 1400
	1    0    0    -1  
$EndComp
Text GLabel 8100 1500 0    50   Input ~ 0
USB_DP
Text GLabel 9100 1500 2    50   Input ~ 0
USB_DM
Text GLabel 9100 1300 2    50   Input ~ 0
USB_CONN_DM
$Comp
L power:GND #PWR0120
U 1 1 5F6195CA
P 8600 1900
F 0 "#PWR0120" H 8600 1650 50  0001 C CNN
F 1 "GND" H 8605 1727 50  0000 C CNN
F 2 "" H 8600 1900 50  0001 C CNN
F 3 "" H 8600 1900 50  0001 C CNN
	1    8600 1900
	1    0    0    -1  
$EndComp
$Comp
L power:+5V #PWR0122
U 1 1 5F62456C
P 8600 900
F 0 "#PWR0122" H 8600 750 50  0001 C CNN
F 1 "+5V" H 8615 1073 50  0000 C CNN
F 2 "" H 8600 900 50  0001 C CNN
F 3 "" H 8600 900 50  0001 C CNN
	1    8600 900 
	1    0    0    -1  
$EndComp
$Comp
L power:+5V #PWR0123
U 1 1 5F635FA4
P 650 900
F 0 "#PWR0123" H 650 750 50  0001 C CNN
F 1 "+5V" H 665 1073 50  0000 C CNN
F 2 "" H 650 900 50  0001 C CNN
F 3 "" H 650 900 50  0001 C CNN
	1    650  900 
	1    0    0    -1  
$EndComp
NoConn ~ 6750 1550
$Comp
L power:GND #PWR0121
U 1 1 5F61DCB9
P 6450 1850
F 0 "#PWR0121" H 6450 1600 50  0001 C CNN
F 1 "GND" H 6455 1677 50  0000 C CNN
F 2 "" H 6450 1850 50  0001 C CNN
F 3 "" H 6450 1850 50  0001 C CNN
	1    6450 1850
	1    0    0    -1  
$EndComp
Text GLabel 8100 1300 0    50   Input ~ 0
USB_CONN_DP
Text GLabel 6850 1450 2    50   Input ~ 0
USB_CONN_DM
Text GLabel 6850 1350 2    50   Input ~ 0
USB_CONN_DP
NoConn ~ 6350 1750
$Comp
L power:+5V #PWR0119
U 1 1 5F5EDBA9
P 7050 950
F 0 "#PWR0119" H 7050 800 50  0001 C CNN
F 1 "+5V" H 7065 1123 50  0000 C CNN
F 2 "" H 7050 950 50  0001 C CNN
F 3 "" H 7050 950 50  0001 C CNN
	1    7050 950 
	1    0    0    -1  
$EndComp
$Comp
L Connector:USB_B_Micro J2
U 1 1 5F5E64E2
P 6450 1350
F 0 "J2" H 6507 1817 50  0000 C CNN
F 1 "USB_B_Micro" H 6507 1726 50  0000 C CNN
F 2 "Connector_USB:USB_Micro-B_Molex-105017-0001" H 6600 1300 50  0001 C CNN
F 3 "~" H 6600 1300 50  0001 C CNN
	1    6450 1350
	1    0    0    -1  
$EndComp
Wire Notes Line
	9850 2150 6100 2150
Wire Notes Line
	6100 2150 6100 650 
Wire Notes Line
	6100 650  9850 650 
Text Notes 6100 600  0    50   ~ 0
USB Connector
Wire Notes Line
	600  3100 600  7700
Wire Notes Line
	600  7700 3650 7700
Wire Notes Line
	3650 7700 3650 3100
Wire Notes Line
	3650 3100 600  3100
Text Notes 3000 3250 0    50   ~ 0
Main Controller
$Comp
L Memory_EEPROM:M24C02-WMN EEPROM1
U 1 1 5F7072B6
P 7000 3400
F 0 "EEPROM1" H 7250 3650 50  0000 C CNN
F 1 "M24C02-WMN-C7562" H 7500 3150 50  0000 C CNN
F 2 "Package_SO:SOIC-8_3.9x4.9mm_P1.27mm" H 7000 3750 50  0001 C CNN
F 3 "http://www.st.com/content/ccc/resource/technical/document/datasheet/b0/d8/50/40/5a/85/49/6f/DM00071904.pdf/files/DM00071904.pdf/jcr:content/translations/en.DM00071904.pdf" H 7050 2900 50  0001 C CNN
	1    7000 3400
	1    0    0    -1  
$EndComp
Wire Notes Line
	9850 650  9850 2150
Wire Wire Line
	5100 2750 5350 2750
Wire Wire Line
	5350 2600 5350 2750
Wire Wire Line
	8600 1000 8600 900 
Wire Wire Line
	9000 1300 9100 1300
Wire Wire Line
	9100 1500 9000 1500
Wire Wire Line
	8100 1300 8200 1300
Wire Wire Line
	8200 1500 8100 1500
Wire Wire Line
	6750 1350 6850 1350
Wire Wire Line
	6850 1450 6750 1450
Wire Wire Line
	6450 1750 6450 1850
$Comp
L Connector_Generic:Conn_02x08_Top_Bottom J3
U 1 1 609DB779
P 9950 3100
F 0 "J3" H 10000 3617 50  0000 C CNN
F 1 "Conn_02x08" H 10000 3526 50  0000 C CNN
F 2 "Connector_PinSocket_2.54mm:PinSocket_2x08_P2.54mm_Vertical_SMD" H 9950 3100 50  0001 C CNN
F 3 "~" H 9950 3100 50  0001 C CNN
	1    9950 3100
	1    0    0    -1  
$EndComp
Text GLabel 8200 3300 2    50   Input ~ 0
EEPROM_SDA
Text GLabel 8200 3400 2    50   Input ~ 0
EEPROM_SCL
Wire Wire Line
	7400 3300 7700 3300
Wire Wire Line
	8200 3400 8000 3400
$Comp
L Device:R R6
U 1 1 60A11DF4
P 7700 3000
F 0 "R6" H 7770 3046 50  0000 L CNN
F 1 "4.7K" H 7770 2955 50  0000 L CNN
F 2 "Resistor_SMD:R_0402_1005Metric" V 7630 3000 50  0001 C CNN
F 3 "~" H 7700 3000 50  0001 C CNN
	1    7700 3000
	1    0    0    -1  
$EndComp
$Comp
L Device:R R7
U 1 1 60A18B33
P 8000 3000
F 0 "R7" H 8070 3046 50  0000 L CNN
F 1 "4.7K" H 8070 2955 50  0000 L CNN
F 2 "Resistor_SMD:R_0402_1005Metric" V 7930 3000 50  0001 C CNN
F 3 "~" H 8000 3000 50  0001 C CNN
	1    8000 3000
	1    0    0    -1  
$EndComp
$Comp
L power:+3V3 #PWR05
U 1 1 60A3552E
P 7700 2600
F 0 "#PWR05" H 7700 2450 50  0001 C CNN
F 1 "+3V3" H 7715 2773 50  0000 C CNN
F 2 "" H 7700 2600 50  0001 C CNN
F 3 "" H 7700 2600 50  0001 C CNN
	1    7700 2600
	1    0    0    -1  
$EndComp
Wire Wire Line
	7700 2600 7700 2700
Wire Wire Line
	8000 2850 8000 2700
Wire Wire Line
	8000 2700 7700 2700
Connection ~ 7700 2700
Wire Wire Line
	7700 2700 7700 2850
Wire Wire Line
	7700 3150 7700 3300
Connection ~ 7700 3300
Wire Wire Line
	7700 3300 8200 3300
Wire Wire Line
	8000 3150 8000 3400
Connection ~ 8000 3400
Wire Wire Line
	8000 3400 7400 3400
$Comp
L power:GND #PWR01
U 1 1 6089C823
P 6300 3500
F 0 "#PWR01" H 6300 3250 50  0001 C CNN
F 1 "GND" H 6400 3400 50  0000 C CNN
F 2 "" H 6300 3500 50  0001 C CNN
F 3 "" H 6300 3500 50  0001 C CNN
	1    6300 3500
	0    1    1    0   
$EndComp
Wire Wire Line
	6600 3300 6450 3300
Wire Wire Line
	6450 3300 6450 3400
Connection ~ 6450 3400
Wire Wire Line
	6450 3400 6450 3500
Wire Wire Line
	6450 3400 6600 3400
Wire Wire Line
	6600 3500 6450 3500
$Comp
L power:+3V3 #PWR04
U 1 1 608C013B
P 7000 2800
F 0 "#PWR04" H 7000 2650 50  0001 C CNN
F 1 "+3V3" H 7015 2973 50  0000 C CNN
F 2 "" H 7000 2800 50  0001 C CNN
F 3 "" H 7000 2800 50  0001 C CNN
	1    7000 2800
	1    0    0    -1  
$EndComp
Wire Wire Line
	7000 2800 7000 3100
Wire Notes Line
	6100 2350 8900 2350
Wire Notes Line
	10900 2350 9050 2350
Text Notes 6100 2400 0    50   ~ 0
EEPROM\n\n
Text Notes 9050 2300 0    50   ~ 0
Breakout Connector
NoConn ~ 7400 3500
Text GLabel 2800 6300 2    50   Input ~ 0
EEPROM_SDA
Text GLabel 2800 6400 2    50   Input ~ 0
EEPROM_SCL
Text GLabel 2800 4000 2    50   Input ~ 0
A1
Text GLabel 2800 4100 2    50   Input ~ 0
A2
Text GLabel 2800 4200 2    50   Input ~ 0
A3
Text GLabel 2800 4300 2    50   Input ~ 0
A4
$Comp
L power:+5V #PWR0124
U 1 1 609E31B4
P 9500 2600
F 0 "#PWR0124" H 9500 2450 50  0001 C CNN
F 1 "+5V" H 9515 2773 50  0000 C CNN
F 2 "" H 9500 2600 50  0001 C CNN
F 3 "" H 9500 2600 50  0001 C CNN
	1    9500 2600
	1    0    0    -1  
$EndComp
Text GLabel 9750 3500 0    50   Input ~ 0
A1
Text GLabel 9750 3400 0    50   Input ~ 0
A2
Text GLabel 9750 3300 0    50   Input ~ 0
A3
Text GLabel 9750 3200 0    50   Input ~ 0
A4
$Comp
L power:GND #PWR0125
U 1 1 609EE526
P 10500 2650
F 0 "#PWR0125" H 10500 2400 50  0001 C CNN
F 1 "GND" H 10505 2477 50  0000 C CNN
F 2 "" H 10500 2650 50  0001 C CNN
F 3 "" H 10500 2650 50  0001 C CNN
	1    10500 2650
	-1   0    0    1   
$EndComp
Wire Wire Line
	10500 2800 10250 2800
Text GLabel 9750 2900 0    50   Input ~ 0
UART_RX
Text GLabel 9750 3000 0    50   Input ~ 0
UART_TX
Text GLabel 10250 3300 2    50   Input ~ 0
SPI_CLK
Text GLabel 10250 3400 2    50   Input ~ 0
SPI_MISO
Text GLabel 10250 3200 2    50   Input ~ 0
SPI_MOSI
Text GLabel 9750 3100 0    50   Input ~ 0
SPI_CS
Wire Wire Line
	10500 2650 10500 2800
Text GLabel 1500 5600 0    50   Input ~ 0
GPIO1
Text GLabel 1500 5700 0    50   Input ~ 0
GPIO2
Text GLabel 10250 3100 2    50   Input ~ 0
GPIO1
Text GLabel 10250 3500 2    50   Input ~ 0
GPIO2
Text GLabel 1500 5900 0    50   Input ~ 0
SPI_MOSI
Text GLabel 2800 7000 2    50   Input ~ 0
SPI_MISO
Text GLabel 2800 6500 2    50   Input ~ 0
SPI_CS
Text GLabel 2800 6600 2    50   Input ~ 0
SPI_CLK
Text GLabel 1500 6600 0    50   Input ~ 0
UART_TX
Text GLabel 1500 6700 0    50   Input ~ 0
UART_RX
$Comp
L Switch:SW_Push SW1
U 1 1 60C5BF33
P 4950 3950
F 0 "SW1" H 4950 4235 50  0000 C CNN
F 1 "SW_Push" H 4950 4144 50  0000 C CNN
F 2 "Button_Switch_SMD:SW_Push_1P1T_NO_6x6mm_H9.5mm" H 4950 4150 50  0001 C CNN
F 3 "~" H 4950 4150 50  0001 C CNN
	1    4950 3950
	1    0    0    -1  
$EndComp
$Comp
L Device:R R8
U 1 1 60C6A223
P 4650 3750
F 0 "R8" H 4450 3800 50  0000 L CNN
F 1 "10K" H 4450 3700 50  0000 L CNN
F 2 "Resistor_SMD:R_0402_1005Metric" V 4580 3750 50  0001 C CNN
F 3 "~" H 4650 3750 50  0001 C CNN
	1    4650 3750
	1    0    0    -1  
$EndComp
$Comp
L power:GND #PWR08
U 1 1 60C6DF8A
P 5250 4050
F 0 "#PWR08" H 5250 3800 50  0001 C CNN
F 1 "GND" H 5255 3877 50  0000 C CNN
F 2 "" H 5250 4050 50  0001 C CNN
F 3 "" H 5250 4050 50  0001 C CNN
	1    5250 4050
	0    -1   -1   0   
$EndComp
$Comp
L power:+3V3 #PWR06
U 1 1 60C7A448
P 4650 3550
F 0 "#PWR06" H 4650 3400 50  0001 C CNN
F 1 "+3V3" H 4665 3723 50  0000 C CNN
F 2 "" H 4650 3550 50  0001 C CNN
F 3 "" H 4650 3550 50  0001 C CNN
	1    4650 3550
	1    0    0    -1  
$EndComp
Text GLabel 4600 3950 0    50   Input ~ 0
BUTTON1
Wire Wire Line
	4650 3900 4650 3950
Wire Wire Line
	4650 3950 4750 3950
Wire Wire Line
	4600 3950 4650 3950
Connection ~ 4650 3950
Wire Wire Line
	5150 3950 5250 3950
Wire Wire Line
	4650 3600 4650 3550
$Comp
L Switch:SW_Push SW2
U 1 1 60CD89A9
P 4950 4150
F 0 "SW2" H 4950 3950 50  0000 C CNN
F 1 "SW_Push" H 4950 4050 50  0000 C CNN
F 2 "Button_Switch_SMD:SW_Push_1P1T_NO_6x6mm_H9.5mm" H 4950 4350 50  0001 C CNN
F 3 "~" H 4950 4350 50  0001 C CNN
	1    4950 4150
	1    0    0    -1  
$EndComp
$Comp
L Device:R R9
U 1 1 60CD89B3
P 4650 4400
F 0 "R9" H 4450 4500 50  0000 L CNN
F 1 "10K" H 4450 4400 50  0000 L CNN
F 2 "Resistor_SMD:R_0402_1005Metric" V 4580 4400 50  0001 C CNN
F 3 "~" H 4650 4400 50  0001 C CNN
	1    4650 4400
	1    0    0    -1  
$EndComp
$Comp
L power:+3V3 #PWR07
U 1 1 60CD89C7
P 4650 4650
F 0 "#PWR07" H 4650 4500 50  0001 C CNN
F 1 "+3V3" H 4665 4823 50  0000 C CNN
F 2 "" H 4650 4650 50  0001 C CNN
F 3 "" H 4650 4650 50  0001 C CNN
	1    4650 4650
	-1   0    0    1   
$EndComp
Text GLabel 4600 4150 0    50   Input ~ 0
BUTTON2
Wire Wire Line
	4600 4150 4650 4150
Wire Wire Line
	4650 4250 4650 4150
Connection ~ 4650 4150
Wire Wire Line
	4650 4150 4750 4150
Wire Wire Line
	4650 4550 4650 4650
Wire Wire Line
	5250 3950 5250 4050
Wire Wire Line
	5250 4050 5250 4150
Wire Wire Line
	5250 4150 5150 4150
Connection ~ 5250 4050
Wire Notes Line
	3750 3250 6000 3250
Wire Notes Line
	6000 3250 6000 4950
Wire Notes Line
	6000 4950 3750 4950
Wire Notes Line
	3750 4950 3750 3250
Text Notes 3750 3200 0    50   ~ 0
Buttons
$Comp
L Device:LED_Small LED3
U 1 1 60D74D02
P 5100 5300
F 0 "LED3" H 5100 5100 50  0000 C CNN
F 1 "Red" H 5100 5200 50  0000 C CNN
F 2 "LED_SMD:LED_0603_1608Metric" V 5100 5300 50  0001 C CNN
F 3 "~" V 5100 5300 50  0001 C CNN
	1    5100 5300
	1    0    0    -1  
$EndComp
$Comp
L Device:R_Small R10
U 1 1 60D7574A
P 4700 5300
F 0 "R10" V 4900 5250 50  0000 L CNN
F 1 "1k" V 4800 5250 50  0000 L CNN
F 2 "Resistor_SMD:R_0603_1608Metric" H 4700 5300 50  0001 C CNN
F 3 "~" H 4700 5300 50  0001 C CNN
	1    4700 5300
	0    1    1    0   
$EndComp
Text GLabel 4450 5300 0    50   Input ~ 0
S_LED1
Wire Notes Line
	3750 5150 6000 5150
Wire Notes Line
	6000 5150 6000 6700
Wire Notes Line
	6000 6700 3750 6700
Wire Notes Line
	3750 6700 3750 5150
$Comp
L Device:LED_Small LED4
U 1 1 60E6B461
P 5100 5650
F 0 "LED4" H 5100 5450 50  0000 C CNN
F 1 "Red" H 5100 5550 50  0000 C CNN
F 2 "LED_SMD:LED_0603_1608Metric" V 5100 5650 50  0001 C CNN
F 3 "~" V 5100 5650 50  0001 C CNN
	1    5100 5650
	1    0    0    -1  
$EndComp
Text GLabel 4450 5650 0    50   Input ~ 0
S_LED2
$Comp
L Device:LED_Small LED5
U 1 1 60E73033
P 5100 6050
F 0 "LED5" H 5100 5850 50  0000 C CNN
F 1 "Red" H 5100 5950 50  0000 C CNN
F 2 "LED_SMD:LED_0603_1608Metric" V 5100 6050 50  0001 C CNN
F 3 "~" V 5100 6050 50  0001 C CNN
	1    5100 6050
	1    0    0    -1  
$EndComp
Text GLabel 4450 6050 0    50   Input ~ 0
S_LED3
$Comp
L Device:LED_Small LED6
U 1 1 60E7ACF4
P 5100 6400
F 0 "LED6" H 5100 6200 50  0000 C CNN
F 1 "Red" H 5100 6300 50  0000 C CNN
F 2 "LED_SMD:LED_0603_1608Metric" V 5100 6400 50  0001 C CNN
F 3 "~" V 5100 6400 50  0001 C CNN
	1    5100 6400
	1    0    0    -1  
$EndComp
Text GLabel 4450 6400 0    50   Input ~ 0
S_LED4
Wire Wire Line
	4450 5300 4600 5300
Wire Wire Line
	4800 5300 5000 5300
Wire Wire Line
	4450 5650 4600 5650
Wire Wire Line
	4450 6050 4600 6050
Wire Wire Line
	4450 6400 4600 6400
Wire Wire Line
	4800 6050 5000 6050
Wire Wire Line
	4800 6400 5000 6400
Wire Wire Line
	4800 5650 5000 5650
Wire Wire Line
	5200 5650 5450 5650
Wire Wire Line
	5200 6050 5450 6050
Wire Wire Line
	5200 6400 5450 6400
Wire Wire Line
	5450 6400 5450 6050
Connection ~ 5450 6050
Wire Wire Line
	5200 5300 5450 5300
Wire Wire Line
	5450 5300 5450 5650
Connection ~ 5450 5650
Wire Wire Line
	5450 5650 5450 5850
Wire Wire Line
	5550 5850 5450 5850
Connection ~ 5450 5850
Wire Wire Line
	5450 5850 5450 6050
Text Notes 3750 5100 0    50   ~ 0
Status LEDs\n
$Comp
L Device:R_Small R11
U 1 1 60F9A210
P 4700 5650
F 0 "R11" V 4900 5600 50  0000 L CNN
F 1 "1k" V 4800 5600 50  0000 L CNN
F 2 "Resistor_SMD:R_0603_1608Metric" H 4700 5650 50  0001 C CNN
F 3 "~" H 4700 5650 50  0001 C CNN
	1    4700 5650
	0    1    1    0   
$EndComp
$Comp
L Device:R_Small R12
U 1 1 60FA34F6
P 4700 6050
F 0 "R12" V 4900 6000 50  0000 L CNN
F 1 "1k" V 4800 6000 50  0000 L CNN
F 2 "Resistor_SMD:R_0603_1608Metric" H 4700 6050 50  0001 C CNN
F 3 "~" H 4700 6050 50  0001 C CNN
	1    4700 6050
	0    1    1    0   
$EndComp
$Comp
L Device:R_Small R13
U 1 1 60FAC99F
P 4700 6400
F 0 "R13" V 4900 6350 50  0000 L CNN
F 1 "1k" V 4800 6350 50  0000 L CNN
F 2 "Resistor_SMD:R_0603_1608Metric" H 4700 6400 50  0001 C CNN
F 3 "~" H 4700 6400 50  0001 C CNN
	1    4700 6400
	0    1    1    0   
$EndComp
$Comp
L Interface_USB:FT232RL U4
U 1 1 6102A3B5
P 9650 5350
F 0 "U4" H 9300 6250 50  0000 C CNN
F 1 "FT232RL" H 10050 6250 50  0000 C CNN
F 2 "Package_SO:SSOP-28_5.3x10.2mm_P0.65mm" H 10750 4450 50  0001 C CNN
F 3 "https://www.ftdichip.com/Support/Documents/DataSheets/ICs/DS_FT232R.pdf" H 9650 5350 50  0001 C CNN
	1    9650 5350
	1    0    0    -1  
$EndComp
$Comp
L Power_Protection:USBLC6-2SC6 U3
U 1 1 6104D4B1
P 7350 4750
F 0 "U3" H 7200 4400 50  0000 C CNN
F 1 "USBLC6-2SC6" H 7650 4400 50  0000 C CNN
F 2 "Package_TO_SOT_SMD:SOT-23-6" H 7350 4250 50  0001 C CNN
F 3 "https://www.st.com/resource/en/datasheet/usblc6-2.pdf" H 7550 5100 50  0001 C CNN
	1    7350 4750
	1    0    0    -1  
$EndComp
Wire Notes Line
	10900 2350 10900 3650
Wire Notes Line
	10900 3650 9050 3650
Wire Notes Line
	9050 3650 9050 2350
$Comp
L Connector:USB_B_Micro J4
U 1 1 61081A8A
P 6450 5850
F 0 "J4" H 6507 6317 50  0000 C CNN
F 1 "USB_B_Micro" H 6507 6226 50  0000 C CNN
F 2 "Connector_USB:USB_Micro-B_Molex-105017-0001" H 6600 5800 50  0001 C CNN
F 3 "~" H 6600 5800 50  0001 C CNN
	1    6450 5850
	1    0    0    -1  
$EndComp
Wire Wire Line
	6900 5650 6750 5650
NoConn ~ 6750 6050
NoConn ~ 6350 6250
$Comp
L power:GND #PWR010
U 1 1 610B92D7
P 6450 6350
F 0 "#PWR010" H 6450 6100 50  0001 C CNN
F 1 "GND" H 6455 6177 50  0000 C CNN
F 2 "" H 6450 6350 50  0001 C CNN
F 3 "" H 6450 6350 50  0001 C CNN
	1    6450 6350
	1    0    0    -1  
$EndComp
Wire Wire Line
	6450 6250 6450 6350
$Comp
L power:+5V #PWR018
U 1 1 610E9385
P 9400 3950
F 0 "#PWR018" H 9400 3800 50  0001 C CNN
F 1 "+5V" H 9500 4050 50  0000 C CNN
F 2 "" H 9400 3950 50  0001 C CNN
F 3 "" H 9400 3950 50  0001 C CNN
	1    9400 3950
	1    0    0    -1  
$EndComp
Wire Wire Line
	8600 1800 8600 1900
$Comp
L power:GND #PWR012
U 1 1 6111B381
P 7350 5250
F 0 "#PWR012" H 7350 5000 50  0001 C CNN
F 1 "GND" H 7355 5077 50  0000 C CNN
F 2 "" H 7350 5250 50  0001 C CNN
F 3 "" H 7350 5250 50  0001 C CNN
	1    7350 5250
	1    0    0    -1  
$EndComp
Wire Wire Line
	7350 5150 7350 5250
Wire Notes Line
	6100 2350 6100 3850
Wire Notes Line
	6100 3850 8900 3850
Wire Wire Line
	6300 3500 6450 3500
Connection ~ 6450 3500
Wire Wire Line
	6450 3700 6450 3500
Wire Wire Line
	6450 3700 7000 3700
Text GLabel 6750 5850 2    50   Input ~ 0
USB_FT_CONN_DP
Text GLabel 6750 5950 2    50   Input ~ 0
USB_FT_CONN_DM
Text GLabel 6950 4650 0    50   Input ~ 0
USB_FT_CONN_DP
Text GLabel 7750 4650 2    50   Input ~ 0
USB_FT_CONN_DM
Text GLabel 6950 4850 0    50   Input ~ 0
USB_FT_DP
Text GLabel 7750 4850 2    50   Input ~ 0
USB_FT_DM
Text GLabel 8850 4950 0    50   Input ~ 0
USB_FT_DP
Text GLabel 8850 5050 0    50   Input ~ 0
USB_FT_DM
Wire Wire Line
	9850 6350 9750 6350
Wire Wire Line
	9750 6350 9650 6350
Connection ~ 9750 6350
Wire Wire Line
	9650 6350 9450 6350
Connection ~ 9650 6350
$Comp
L power:GND #PWR019
U 1 1 612875A2
P 9300 6350
F 0 "#PWR019" H 9300 6100 50  0001 C CNN
F 1 "GND" H 9305 6177 50  0000 C CNN
F 2 "" H 9300 6350 50  0001 C CNN
F 3 "" H 9300 6350 50  0001 C CNN
	1    9300 6350
	0    1    1    0   
$EndComp
Wire Wire Line
	9450 6350 9300 6350
Connection ~ 9450 6350
Wire Wire Line
	9750 4350 9750 4150
Wire Wire Line
	7350 4150 7350 4350
Wire Wire Line
	9550 4350 9550 4150
$Comp
L Device:C_Small C19
U 1 1 612D26B8
P 8000 4250
F 0 "C19" H 8092 4296 50  0000 L CNN
F 1 "10nf" H 8092 4205 50  0000 L CNN
F 2 "Capacitor_SMD:C_0402_1005Metric" H 8000 4250 50  0001 C CNN
F 3 "~" H 8000 4250 50  0001 C CNN
	1    8000 4250
	1    0    0    -1  
$EndComp
Wire Wire Line
	8000 4150 7350 4150
$Comp
L power:GND #PWR013
U 1 1 612D69E4
P 8000 4350
F 0 "#PWR013" H 8000 4100 50  0001 C CNN
F 1 "GND" H 8005 4177 50  0000 C CNN
F 2 "" H 8000 4350 50  0001 C CNN
F 3 "" H 8000 4350 50  0001 C CNN
	1    8000 4350
	1    0    0    -1  
$EndComp
$Comp
L Device:Ferrite_Bead_Small FB3
U 1 1 612DB8FC
P 8600 4150
F 0 "FB3" V 8650 4300 50  0000 C CNN
F 1 "100 @ 100MHz" V 8750 4300 50  0000 C CNN
F 2 "Inductor_SMD:L_0805_2012Metric" V 8530 4150 50  0001 C CNN
F 3 "~" H 8600 4150 50  0001 C CNN
	1    8600 4150
	0    1    1    0   
$EndComp
Wire Wire Line
	8500 4150 8000 4150
Connection ~ 8000 4150
Connection ~ 9550 4150
Wire Wire Line
	9550 4150 9400 4150
Wire Wire Line
	9750 4150 9550 4150
$Comp
L Device:C_Small C21
U 1 1 6133DCAC
P 8750 4650
F 0 "C21" V 8900 4600 50  0000 L CNN
F 1 "100nf" V 8600 4550 50  0000 L CNN
F 2 "Capacitor_SMD:C_0402_1005Metric" H 8750 4650 50  0001 C CNN
F 3 "~" H 8750 4650 50  0001 C CNN
	1    8750 4650
	0    -1   -1   0   
$EndComp
$Comp
L power:GND #PWR016
U 1 1 61341BEF
P 8650 4650
F 0 "#PWR016" H 8650 4400 50  0001 C CNN
F 1 "GND" H 8550 4550 50  0000 C CNN
F 2 "" H 8650 4650 50  0001 C CNN
F 3 "" H 8650 4650 50  0001 C CNN
	1    8650 4650
	0    1    1    0   
$EndComp
Text GLabel 11050 4550 1    50   Input ~ 0
UART_FT_RX
Text GLabel 10850 4550 1    50   Input ~ 0
UART_FT_TX
$Comp
L power:GND #PWR017
U 1 1 613765D9
P 8800 6050
F 0 "#PWR017" H 8800 5800 50  0001 C CNN
F 1 "GND" H 8700 5950 50  0000 C CNN
F 2 "" H 8800 6050 50  0001 C CNN
F 3 "" H 8800 6050 50  0001 C CNN
	1    8800 6050
	0    1    1    0   
$EndComp
Wire Wire Line
	8850 6050 8800 6050
$Comp
L power:+5V #PWR014
U 1 1 61382E12
P 8200 5050
F 0 "#PWR014" H 8200 4900 50  0001 C CNN
F 1 "+5V" H 8050 5100 50  0000 C CNN
F 2 "" H 8200 5050 50  0001 C CNN
F 3 "" H 8200 5050 50  0001 C CNN
	1    8200 5050
	1    0    0    -1  
$EndComp
Wire Wire Line
	8850 5350 8200 5350
$Comp
L Device:C_Small C20
U 1 1 6138ECA7
P 8200 5450
F 0 "C20" H 8300 5450 50  0000 L CNN
F 1 "100nf" H 7900 5450 50  0000 L CNN
F 2 "Capacitor_SMD:C_0402_1005Metric" H 8200 5450 50  0001 C CNN
F 3 "~" H 8200 5450 50  0001 C CNN
	1    8200 5450
	1    0    0    -1  
$EndComp
$Comp
L power:GND #PWR015
U 1 1 61390705
P 8200 5550
F 0 "#PWR015" H 8200 5300 50  0001 C CNN
F 1 "GND" H 8205 5377 50  0000 C CNN
F 2 "" H 8200 5550 50  0001 C CNN
F 3 "" H 8200 5550 50  0001 C CNN
	1    8200 5550
	1    0    0    -1  
$EndComp
NoConn ~ 8850 5550
NoConn ~ 8850 5750
NoConn ~ 10450 5850
NoConn ~ 10450 5750
NoConn ~ 10450 6050
NoConn ~ 10450 5350
NoConn ~ 10450 5250
NoConn ~ 10450 5150
NoConn ~ 10450 5050
NoConn ~ 10450 4950
NoConn ~ 10450 4850
$Comp
L Device:R_Small R14
U 1 1 6144470C
P 10650 4650
F 0 "R14" V 10750 4750 50  0000 L CNN
F 1 "1k" V 10750 4600 50  0000 L CNN
F 2 "Resistor_SMD:R_0603_1608Metric" H 10650 4650 50  0001 C CNN
F 3 "~" H 10650 4650 50  0001 C CNN
	1    10650 4650
	0    -1   -1   0   
$EndComp
$Comp
L Device:R_Small R16
U 1 1 6144568A
P 10900 4750
F 0 "R16" V 10800 4800 50  0000 L CNN
F 1 "1k" V 10800 4650 50  0000 L CNN
F 2 "Resistor_SMD:R_0603_1608Metric" H 10900 4750 50  0001 C CNN
F 3 "~" H 10900 4750 50  0001 C CNN
	1    10900 4750
	0    -1   -1   0   
$EndComp
Wire Wire Line
	10750 4650 10850 4650
Wire Wire Line
	10850 4650 10850 4550
Wire Wire Line
	10550 4650 10450 4650
Wire Wire Line
	10450 4750 10800 4750
Wire Wire Line
	11000 4750 11050 4750
Wire Wire Line
	11050 4550 11050 4750
Wire Notes Line
	6100 6700 6900 6700
Wire Notes Line
	6900 6700 6900 6500
Wire Notes Line
	6900 6500 11150 6500
Wire Notes Line
	11150 6500 11150 3750
Wire Notes Line
	6100 6700 6100 4050
Wire Notes Line
	8900 2350 8900 3850
Wire Notes Line
	9050 4050 9050 3750
Wire Notes Line
	9050 3750 11150 3750
Wire Notes Line
	6100 4050 9050 4050
Text Notes 6100 4100 0    50   ~ 0
USB_FTD\n\n
Text GLabel 2800 4800 2    50   Input ~ 0
UART_FT_RX
Text GLabel 2800 4900 2    50   Input ~ 0
UART_FT_TX
Wire Notes Line
	3750 6800 6900 6800
Wire Notes Line
	6900 6800 6900 7700
Wire Notes Line
	6900 7700 3750 7700
Wire Notes Line
	3750 7700 3750 6800
Text GLabel 1500 6000 0    50   Input ~ 0
BUTTON1
Text GLabel 1500 6100 0    50   Input ~ 0
BUTTON2
Text GLabel 1500 6200 0    50   Input ~ 0
S_LED1
Text GLabel 1500 6300 0    50   Input ~ 0
S_LED2
Text GLabel 1500 6400 0    50   Input ~ 0
S_LED3
Text GLabel 1500 6500 0    50   Input ~ 0
S_LED4
$Comp
L Device:D_Schottky_Small D2
U 1 1 615A388F
P 9400 4050
F 0 "D2" H 9250 4250 50  0000 C CNN
F 1 "B5819W" H 9300 4150 50  0000 C CNN
F 2 "Diode_SMD:D_SOD-123" V 9400 4050 50  0001 C CNN
F 3 "~" V 9400 4050 50  0001 C CNN
	1    9400 4050
	0    -1   1    0   
$EndComp
Connection ~ 9400 4150
Wire Wire Line
	8700 4150 9400 4150
Text GLabel 7150 4150 0    50   Input ~ 0
FT_VCC
Text GLabel 6900 5650 2    50   Input ~ 0
FT_VCC
Wire Wire Line
	7350 4150 7150 4150
Connection ~ 7350 4150
$Comp
L Device:D_Schottky_Small D1
U 1 1 615D4083
P 7050 1050
F 0 "D1" H 6950 1150 50  0000 C CNN
F 1 "B5819W" H 6950 900 50  0000 C CNN
F 2 "Diode_SMD:D_SOD-123" V 7050 1050 50  0001 C CNN
F 3 "~" V 7050 1050 50  0001 C CNN
	1    7050 1050
	0    -1   1    0   
$EndComp
Wire Wire Line
	6750 1150 7050 1150
$Comp
L Device:D_Schottky_Small D3
U 1 1 615E3E03
P 9500 2700
F 0 "D3" H 9400 2800 50  0000 C CNN
F 1 "B5819W" H 9400 2550 50  0000 C CNN
F 2 "Diode_SMD:D_SOD-123" V 9500 2700 50  0001 C CNN
F 3 "~" V 9500 2700 50  0001 C CNN
	1    9500 2700
	0    -1   1    0   
$EndComp
Wire Wire Line
	9500 2800 9750 2800
Wire Wire Line
	1100 1000 1350 1000
Wire Wire Line
	900  1000 650  1000
$Comp
L power:+3V3 #PWR0126
U 1 1 6165DD6B
P 10350 3000
F 0 "#PWR0126" H 10350 2850 50  0001 C CNN
F 1 "+3V3" V 10350 3250 50  0000 C CNN
F 2 "" H 10350 3000 50  0001 C CNN
F 3 "" H 10350 3000 50  0001 C CNN
	1    10350 3000
	0    1    1    0   
$EndComp
Wire Wire Line
	10250 2900 10500 2900
Wire Wire Line
	10500 2900 10500 2800
Connection ~ 10500 2800
Wire Wire Line
	10350 3000 10250 3000
$Comp
L power:+3V3 #PWR0127
U 1 1 6168C29F
P 1400 3450
F 0 "#PWR0127" H 1400 3300 50  0001 C CNN
F 1 "+3V3" H 1400 3600 50  0000 C CNN
F 2 "" H 1400 3450 50  0001 C CNN
F 3 "" H 1400 3450 50  0001 C CNN
	1    1400 3450
	1    0    0    -1  
$EndComp
$Comp
L Device:R R17
U 1 1 6168DCFE
P 1400 3650
F 0 "R17" H 1500 3750 50  0000 L CNN
F 1 "10K" H 1500 3650 50  0000 L CNN
F 2 "Resistor_SMD:R_0402_1005Metric" V 1330 3650 50  0001 C CNN
F 3 "~" H 1400 3650 50  0001 C CNN
	1    1400 3650
	1    0    0    -1  
$EndComp
Wire Wire Line
	1300 3900 1400 3900
Wire Wire Line
	1400 3900 1500 3900
Connection ~ 1400 3900
Wire Wire Line
	1400 3900 1400 3800
Wire Wire Line
	1400 3500 1400 3450
NoConn ~ 10450 5650
NoConn ~ 10450 5950
$Comp
L Device:R R15
U 1 1 6172F6CC
P 8200 5200
F 0 "R15" H 8000 5250 50  0000 L CNN
F 1 "10K" H 8000 5150 50  0000 L CNN
F 2 "Resistor_SMD:R_0402_1005Metric" V 8130 5200 50  0001 C CNN
F 3 "~" H 8200 5200 50  0001 C CNN
	1    8200 5200
	1    0    0    -1  
$EndComp
Connection ~ 8200 5350
$Comp
L Device:C_Small C23
U 1 1 6179B158
P 10200 4150
F 0 "C23" V 10250 4200 50  0000 L CNN
F 1 "4.7uf" V 10350 4100 50  0000 L CNN
F 2 "Capacitor_SMD:C_0603_1608Metric" H 10200 4150 50  0001 C CNN
F 3 "~" H 10200 4150 50  0001 C CNN
	1    10200 4150
	0    1    1    0   
$EndComp
$Comp
L Device:C_Small C22
U 1 1 617A243A
P 10200 3850
F 0 "C22" V 10250 3900 50  0000 L CNN
F 1 "100nf" V 10350 3800 50  0000 L CNN
F 2 "Capacitor_SMD:C_0402_1005Metric" H 10200 3850 50  0001 C CNN
F 3 "~" H 10200 3850 50  0001 C CNN
	1    10200 3850
	0    1    1    0   
$EndComp
Wire Wire Line
	10450 4150 10450 4000
Wire Wire Line
	10450 3850 10300 3850
$Comp
L power:GND #PWR011
U 1 1 617BEEE9
P 10500 4000
F 0 "#PWR011" H 10500 3750 50  0001 C CNN
F 1 "GND" V 10500 3800 50  0000 C CNN
F 2 "" H 10500 4000 50  0001 C CNN
F 3 "" H 10500 4000 50  0001 C CNN
	1    10500 4000
	0    -1   -1   0   
$EndComp
Wire Wire Line
	10500 4000 10450 4000
Connection ~ 10450 4000
Wire Wire Line
	10450 4000 10450 3850
Wire Wire Line
	10450 4150 10300 4150
Wire Wire Line
	10100 3850 10000 3850
Wire Wire Line
	10100 4150 10000 4150
Wire Wire Line
	9750 4150 9750 4000
Wire Wire Line
	9750 4000 10000 4000
Wire Wire Line
	10000 4000 10000 3850
Connection ~ 9750 4150
Wire Wire Line
	10000 4000 10000 4150
Connection ~ 10000 4000
$Comp
L power:+3V3 #PWR0128
U 1 1 619A7DBB
P 5550 5850
F 0 "#PWR0128" H 5550 5700 50  0001 C CNN
F 1 "+3V3" H 5565 6023 50  0000 C CNN
F 2 "" H 5550 5850 50  0001 C CNN
F 3 "" H 5550 5850 50  0001 C CNN
	1    5550 5850
	0    1    1    0   
$EndComp
$Comp
L MCU_ST_STM32L0:STM32L063R8Tx U5
U 1 1 609370D9
P 2200 5500
F 0 "U5" H 2150 7481 50  0000 C CNN
F 1 "STM32L063R8Tx" H 2800 3700 50  0000 C CNN
F 2 "Package_QFP:LQFP-64_10x10mm_P0.5mm" H 1600 3800 50  0001 R CNN
F 3 "http://www.st.com/st-web-ui/static/active/en/resource/technical/document/datasheet/DM00102435.pdf" H 2200 5500 50  0001 C CNN
	1    2200 5500
	1    0    0    -1  
$EndComp
Text GLabel 1500 4100 0    50   Input ~ 0
BOOT0
$Comp
L power:+3V3 #PWR0107
U 1 1 609D26EE
P 1500 4300
F 0 "#PWR0107" H 1500 4150 50  0001 C CNN
F 1 "+3V3" H 1515 4473 50  0000 C CNN
F 2 "" H 1500 4300 50  0001 C CNN
F 3 "" H 1500 4300 50  0001 C CNN
	1    1500 4300
	0    -1   -1   0   
$EndComp
$Comp
L power:+3.3VA #PWR0108
U 1 1 609D6337
P 2300 3550
F 0 "#PWR0108" H 2300 3400 50  0001 C CNN
F 1 "+3.3VA" H 2315 3723 50  0000 C CNN
F 2 "" H 2300 3550 50  0001 C CNN
F 3 "" H 2300 3550 50  0001 C CNN
	1    2300 3550
	1    0    0    -1  
$EndComp
$Comp
L power:+3V3 #PWR0111
U 1 1 609D6858
P 2400 3700
F 0 "#PWR0111" H 2400 3550 50  0001 C CNN
F 1 "+3V3" H 2415 3873 50  0000 C CNN
F 2 "" H 2400 3700 50  0001 C CNN
F 3 "" H 2400 3700 50  0001 C CNN
	1    2400 3700
	1    0    0    -1  
$EndComp
Wire Wire Line
	2300 3550 2300 3700
$Comp
L power:GND #PWR0112
U 1 1 60A5A24D
P 2000 7450
F 0 "#PWR0112" H 2000 7200 50  0001 C CNN
F 1 "GND" H 2005 7277 50  0000 C CNN
F 2 "" H 2000 7450 50  0001 C CNN
F 3 "" H 2000 7450 50  0001 C CNN
	1    2000 7450
	1    0    0    -1  
$EndComp
Wire Wire Line
	2000 7300 2000 7400
Wire Wire Line
	2000 7400 2100 7400
Connection ~ 2000 7400
Wire Wire Line
	2000 7400 2000 7450
Wire Wire Line
	2400 7300 2400 7400
Wire Wire Line
	2300 7300 2300 7400
Connection ~ 2300 7400
Wire Wire Line
	2300 7400 2400 7400
Wire Wire Line
	2200 7300 2200 7400
Connection ~ 2200 7400
Wire Wire Line
	2200 7400 2300 7400
Wire Wire Line
	2100 7300 2100 7400
Connection ~ 2100 7400
Wire Wire Line
	2100 7400 2200 7400
NoConn ~ 5500 1150
NoConn ~ 2800 3900
NoConn ~ 2800 4400
NoConn ~ 2800 4500
NoConn ~ 2800 4600
NoConn ~ 2800 4700
NoConn ~ 2800 5400
NoConn ~ 1500 5400
NoConn ~ 1500 5800
NoConn ~ 2800 5600
NoConn ~ 2800 5700
NoConn ~ 2800 5800
NoConn ~ 2800 5900
NoConn ~ 2800 6000
NoConn ~ 2800 6100
NoConn ~ 2800 6200
NoConn ~ 2800 6700
NoConn ~ 2800 6900
NoConn ~ 2800 7100
NoConn ~ 1500 6800
NoConn ~ 1500 6900
NoConn ~ 1500 7000
NoConn ~ 1500 7100
$EndSCHEMATC
